{
	"info": {
		"_postman_id": "671bbddd-3c0d-492c-a6ea-9dcf300ec65f",
		"name": "Swagger PET",
		"schema": "https://schema.getpostman.com/json/collection/v2.1.0/collection.json"
	},
	"item": [
		{
			"name": "POST /pet{petId}/uploadImage",
			"item": [
				{
					"name": "Upload a image to pet with sucess",
					"event": [
						{
							"listen": "test",
							"script": {
								"exec": [
									"pm.test(\"Validate response code\", function () {",
									"    pm.response.to.have.status(200);",
									"});",
									"",
									"const jsonResponse = JSON.parse(responseBody);",
									"",
									"pm.test(\"Validate response body\", function () {",
									"    pm.expect(jsonResponse.message).to.be.eq('additionalMetadata: dog picture\\nFile uploaded to ./dog.jpg, 29360 bytes');",
									"});"
								],
								"type": "text/javascript"
							}
						},
						{
							"listen": "prerequest",
							"script": {
								"exec": [
									"const url = `${pm.environment.get(\"baseUrl\")}/pet`;",
									"const petId = pm.environment.get(\"petId\");",
									"",
									"pm.sendRequest({",
									"    url: url,",
									"    method: 'POST',",
									"    header: {",
									"    'Content-Type': 'application/json'",
									"    },",
									"    body: JSON.stringify({",
									"    \"id\": petId,",
									"    \"category\": {",
									"      \"id\": 1,",
									"      \"name\": \"cat\"",
									"    },",
									"    \"name\": \"doggie\",",
									"    \"photoUrls\": [",
									"      \"url\"",
									"    ],",
									"    \"tags\": [",
									"      {",
									"        \"id\": 10,",
									"        \"name\": \"male\"",
									"      }",
									"    ],",
									"    \"status\": \"available\"",
									"    })",
									"}, function (err, res) {",
									"    if (err) throw new Error(err);",
									"    console.log(res.code);",
									"});"
								],
								"type": "text/javascript"
							}
						}
					],
					"protocolProfileBehavior": {
						"disabledSystemHeaders": {
							"user-agent": true,
							"accept": true,
							"accept-encoding": true,
							"connection": true
						}
					},
					"request": {
						"method": "POST",
						"header": [],
						"body": {
							"mode": "formdata",
							"formdata": [
								{
									"key": "additionalMetadata",
									"value": "dog picture",
									"type": "text"
								},
								{
									"key": "file",
									"type": "file",
									"src": "dog.jpg"
								}
							],
							"options": {
								"raw": {
									"language": "json"
								}
							}
						},
						"url": {
							"raw": "{{baseUrl}}/pet/{{petId}}/uploadImage",
							"host": [
								"{{baseUrl}}"
							],
							"path": [
								"pet",
								"{{petId}}",
								"uploadImage"
							]
						}
					},
					"response": []
				},
				{
					"name": "Fail to upload a image to pet with invalid Id",
					"event": [
						{
							"listen": "test",
							"script": {
								"exec": [
									"pm.test(\"Validate response code\", function () {",
									"    pm.response.to.have.status(404);",
									"});",
									"",
									"const jsonResponse = JSON.parse(responseBody);",
									"",
									"pm.test(\"Validate response body\", function () {",
									"    pm.expect(jsonResponse.message).to.be.eq('java.lang.NumberFormatException: For input string: \\\"invalid\\\"');",
									"});"
								],
								"type": "text/javascript"
							}
						}
					],
					"protocolProfileBehavior": {
						"disabledSystemHeaders": {
							"accept": true
						}
					},
					"request": {
						"method": "POST",
						"header": [
							{
								"key": "Accept",
								"value": "application/json",
								"type": "text"
							}
						],
						"body": {
							"mode": "formdata",
							"formdata": [
								{
									"key": "additionalMetadata",
									"value": "dog picture",
									"type": "text"
								},
								{
									"key": "file",
									"type": "file",
									"src": "dog.jpg"
								}
							],
							"options": {
								"raw": {
									"language": "json"
								}
							}
						},
						"url": {
							"raw": "{{baseUrl}}/pet/invalid/uploadImage",
							"host": [
								"{{baseUrl}}"
							],
							"path": [
								"pet",
								"invalid",
								"uploadImage"
							]
						}
					},
					"response": []
				},
				{
					"name": "Upload a image to pet with non existent Id with success*",
					"event": [
						{
							"listen": "test",
							"script": {
								"exec": [
									"pm.test(\"Validate response code\", function () {",
									"    pm.response.to.have.status(200);",
									"});",
									"",
									"const jsonResponse = JSON.parse(responseBody);",
									"",
									"pm.test(\"Validate response body\", function () {",
									"    pm.expect(jsonResponse.message).to.be.eq('additionalMetadata: dog picture\\nFile uploaded to ./dog.jpg, 29360 bytes');",
									"});"
								],
								"type": "text/javascript"
							}
						},
						{
							"listen": "prerequest",
							"script": {
								"exec": [
									"const baseUrl = pm.environment.get(\"baseUrl\")",
									"const petId = pm.environment.get(\"petId\")",
									"pm.sendRequest({",
									"    url: `${baseUrl}/pet/${petId}`,",
									"    method: 'DELETE',",
									"    header: {",
									"    'Content-Type': 'application/json'",
									"    }",
									"}, function (err, res) {",
									"    if (err) throw new Error(err);",
									"    console.log(res.code);",
									"});"
								],
								"type": "text/javascript"
							}
						}
					],
					"protocolProfileBehavior": {
						"disabledSystemHeaders": {
							"accept": true
						}
					},
					"request": {
						"method": "POST",
						"header": [
							{
								"key": "Accept",
								"value": "application/json",
								"type": "text"
							}
						],
						"body": {
							"mode": "formdata",
							"formdata": [
								{
									"key": "additionalMetadata",
									"value": "dog picture",
									"type": "text"
								},
								{
									"key": "file",
									"type": "file",
									"src": "dog.jpg"
								}
							],
							"options": {
								"raw": {
									"language": "json"
								}
							}
						},
						"url": {
							"raw": "{{baseUrl}}/pet/{{petId}}/uploadImage",
							"host": [
								"{{baseUrl}}"
							],
							"path": [
								"pet",
								"{{petId}}",
								"uploadImage"
							]
						}
					},
					"response": []
				}
			]
		},
		{
			"name": "POST /pet",
			"item": [
				{
					"name": "Create a Pet with success",
					"event": [
						{
							"listen": "test",
							"script": {
								"exec": [
									"pm.test(\"Validate response code\", function () {",
									"    pm.response.to.have.status(200);",
									"});",
									"",
									"const jsonResponse = JSON.parse(responseBody);",
									"",
									"pm.test(\"Validate response body\", function () {",
									"    pm.expect(jsonResponse.id).to.be.not.null;",
									"    pm.expect(jsonResponse.name).to.be.eq('doggie');",
									"    pm.expect(jsonResponse.photoUrls).to.includes('url');",
									"    pm.expect(jsonResponse.status).to.be.eq('available');",
									"",
									"});",
									"",
									"pm.test('Validate response category', function () {",
									"    pm.expect(jsonResponse.category.id).to.be.eq(1);",
									"    pm.expect(jsonResponse.category.name).to.be.eq('cat');",
									"})",
									"",
									"pm.test(\"Validate response tags\", function () {",
									"    const { tags } = jsonResponse;",
									"    pm.expect(tags[0].id).to.be.eq(10);",
									"    pm.expect(tags[0].name).to.be.eq('male');",
									"});",
									""
								],
								"type": "text/javascript"
							}
						}
					],
					"protocolProfileBehavior": {
						"disabledSystemHeaders": {}
					},
					"request": {
						"method": "POST",
						"header": [],
						"body": {
							"mode": "raw",
							"raw": "{\n    \"category\": {\n        \"id\": 1,\n        \"name\": \"cat\"\n    },\n    \"name\": \"doggie\",\n    \"photoUrls\": [\n        \"url\"\n    ],\n    \"tags\": [\n        {\n            \"id\": 10,\n            \"name\": \"male\"\n        }\n    ],\n    \"status\": \"available\"\n}",
							"options": {
								"raw": {
									"language": "json"
								}
							}
						},
						"url": {
							"raw": "https://petstore.swagger.io/v2/pet",
							"protocol": "https",
							"host": [
								"petstore",
								"swagger",
								"io"
							],
							"path": [
								"v2",
								"pet"
							]
						}
					},
					"response": []
				},
				{
					"name": "Fail to Register a Pet with invalid id",
					"event": [
						{
							"listen": "test",
							"script": {
								"exec": [
									"pm.test(\"Validate response code\", function () {",
									"    pm.response.to.have.status(500);",
									"});",
									"",
									"const jsonResponse = JSON.parse(responseBody);",
									"",
									"pm.test(\"Validate response body\", function () {",
									"    pm.expect(jsonResponse.message).to.be.eq('something bad happened');",
									"});"
								],
								"type": "text/javascript"
							}
						}
					],
					"request": {
						"method": "POST",
						"header": [],
						"body": {
							"mode": "raw",
							"raw": "{\n    \"id\": \"invalid\",\n    \"category\": {\n        \"id\": 1,\n        \"name\": \"cat\"\n    },\n    \"name\": \"doggie\",\n    \"photoUrls\": [\n        \"url\"\n    ],\n    \"tags\": [\n        {\n            \"id\": 10,\n            \"name\": \"male\"\n        }\n    ],\n    \"status\": \"available\"\n}",
							"options": {
								"raw": {
									"language": "json"
								}
							}
						},
						"url": {
							"raw": "https://petstore.swagger.io/v2/pet",
							"protocol": "https",
							"host": [
								"petstore",
								"swagger",
								"io"
							],
							"path": [
								"v2",
								"pet"
							]
						}
					},
					"response": []
				},
				{
					"name": "Fail to Register a Pet with invalid category id",
					"event": [
						{
							"listen": "test",
							"script": {
								"exec": [
									"pm.test(\"Validate response code\", function () {",
									"    pm.response.to.have.status(500);",
									"});",
									"",
									"const jsonResponse = JSON.parse(responseBody);",
									"",
									"pm.test(\"Validate response body\", function () {",
									"    pm.expect(jsonResponse.message).to.be.eq('something bad happened');",
									"});"
								],
								"type": "text/javascript"
							}
						}
					],
					"request": {
						"method": "POST",
						"header": [],
						"body": {
							"mode": "raw",
							"raw": "{\n    \"category\": {\n        \"id\": \"invalid\",\n        \"name\": \"cat\"\n    },\n    \"name\": \"doggie\",\n    \"photoUrls\": [\n        \"url\"\n    ],\n    \"tags\": [\n        {\n            \"id\": 10,\n            \"name\": \"male\"\n        }\n    ],\n    \"status\": \"available\"\n}",
							"options": {
								"raw": {
									"language": "json"
								}
							}
						},
						"url": {
							"raw": "https://petstore.swagger.io/v2/pet",
							"protocol": "https",
							"host": [
								"petstore",
								"swagger",
								"io"
							],
							"path": [
								"v2",
								"pet"
							]
						}
					},
					"response": []
				},
				{
					"name": "Fail to Register a Pet with invalid tag id",
					"event": [
						{
							"listen": "test",
							"script": {
								"exec": [
									"pm.test(\"Validate response code\", function () {",
									"    pm.response.to.have.status(500);",
									"});",
									"",
									"const jsonResponse = JSON.parse(responseBody);",
									"",
									"pm.test(\"Validate response body\", function () {",
									"    pm.expect(jsonResponse.message).to.be.eq('something bad happened');",
									"});"
								],
								"type": "text/javascript"
							}
						}
					],
					"request": {
						"method": "POST",
						"header": [],
						"body": {
							"mode": "raw",
							"raw": "{\n    \"category\": {\n        \"id\": 1,\n        \"name\": \"cat\"\n    },\n    \"name\": \"doggie\",\n    \"photoUrls\": [\n        \"url\"\n    ],\n    \"tags\": [\n        {\n            \"id\": \"invalid\",\n            \"name\": \"male\"\n        }\n    ],\n    \"status\": \"available\"\n}",
							"options": {
								"raw": {
									"language": "json"
								}
							}
						},
						"url": {
							"raw": "https://petstore.swagger.io/v2/pet",
							"protocol": "https",
							"host": [
								"petstore",
								"swagger",
								"io"
							],
							"path": [
								"v2",
								"pet"
							]
						}
					},
					"response": []
				}
			]
		},
		{
			"name": "GET /pet/findByStatus",
			"item": [
				{
					"name": "Get a Pet by status available with success",
					"event": [
						{
							"listen": "test",
							"script": {
								"exec": [
									"pm.test(\"Validate response code\", function () {",
									"    pm.response.to.have.status(200);",
									"});",
									"",
									"const jsonResponse = JSON.parse(responseBody);",
									"",
									"pm.test(\"Validate response pet status\", function () {",
									"    jsonResponse.forEach((pet) => {",
									"        pm.expect(pet.status).to.be.eq('available')",
									"    })",
									"});"
								],
								"type": "text/javascript"
							}
						}
					],
					"protocolProfileBehavior": {
						"disableBodyPruning": true
					},
					"request": {
						"method": "GET",
						"header": [],
						"body": {
							"mode": "raw",
							"raw": "",
							"options": {
								"raw": {
									"language": "json"
								}
							}
						},
						"url": {
							"raw": "{{baseUrl}}/pet/findByStatus?status=available",
							"host": [
								"{{baseUrl}}"
							],
							"path": [
								"pet",
								"findByStatus"
							],
							"query": [
								{
									"key": "status",
									"value": "available"
								}
							]
						}
					},
					"response": []
				},
				{
					"name": "Get a Pet by status pending with success",
					"event": [
						{
							"listen": "test",
							"script": {
								"exec": [
									"pm.test(\"Validate response code\", function () {",
									"    pm.response.to.have.status(200);",
									"});",
									"",
									"const jsonResponse = JSON.parse(responseBody);",
									"",
									"pm.test(\"Validate response pet status\", function () {",
									"    jsonResponse.forEach((pet) => {",
									"        pm.expect(pet.status).to.be.eq('pending')",
									"    })",
									"});"
								],
								"type": "text/javascript"
							}
						}
					],
					"protocolProfileBehavior": {
						"disableBodyPruning": true
					},
					"request": {
						"method": "GET",
						"header": [],
						"body": {
							"mode": "raw",
							"raw": "",
							"options": {
								"raw": {
									"language": "json"
								}
							}
						},
						"url": {
							"raw": "{{baseUrl}}/pet/findByStatus?status=pending",
							"host": [
								"{{baseUrl}}"
							],
							"path": [
								"pet",
								"findByStatus"
							],
							"query": [
								{
									"key": "status",
									"value": "pending"
								}
							]
						}
					},
					"response": []
				},
				{
					"name": "Get a Pet by status sold with success",
					"event": [
						{
							"listen": "test",
							"script": {
								"exec": [
									"pm.test(\"Validate response code\", function () {",
									"    pm.response.to.have.status(200);",
									"});",
									"",
									"const jsonResponse = JSON.parse(responseBody);",
									"",
									"pm.test(\"Validate response pet status\", function () {",
									"    pm.expect(jsonResponse.length).to.be.greaterThan(0)",
									"    jsonResponse.forEach((pet) => {",
									"        pm.expect(pet.status).to.be.eq('sold')",
									"    })",
									"});"
								],
								"type": "text/javascript"
							}
						}
					],
					"protocolProfileBehavior": {
						"disableBodyPruning": true
					},
					"request": {
						"method": "GET",
						"header": [],
						"body": {
							"mode": "raw",
							"raw": "",
							"options": {
								"raw": {
									"language": "json"
								}
							}
						},
						"url": {
							"raw": "{{baseUrl}}/pet/findByStatus?status=sold",
							"host": [
								"{{baseUrl}}"
							],
							"path": [
								"pet",
								"findByStatus"
							],
							"query": [
								{
									"key": "status",
									"value": "sold"
								}
							]
						}
					},
					"response": []
				},
				{
					"name": "Get a Pet by invalid status will return a empty array",
					"event": [
						{
							"listen": "test",
							"script": {
								"exec": [
									"pm.test(\"Validate response code\", function () {",
									"    pm.response.to.have.status(200);",
									"});",
									"",
									"const jsonResponse = JSON.parse(responseBody);",
									"",
									"pm.test(\"Validate response pet status\", function () {",
									"    pm.expect(jsonResponse.length).to.be.eq(0)",
									"});"
								],
								"type": "text/javascript"
							}
						}
					],
					"protocolProfileBehavior": {
						"disableBodyPruning": true
					},
					"request": {
						"method": "GET",
						"header": [],
						"body": {
							"mode": "raw",
							"raw": "",
							"options": {
								"raw": {
									"language": "json"
								}
							}
						},
						"url": {
							"raw": "{{baseUrl}}/pet/findByStatus?status=invalid",
							"host": [
								"{{baseUrl}}"
							],
							"path": [
								"pet",
								"findByStatus"
							],
							"query": [
								{
									"key": "status",
									"value": "invalid"
								}
							]
						}
					},
					"response": []
				}
			]
		},
		{
			"name": "GET /pet/{petId}",
			"item": [
				{
					"name": "Get a pet by Id with success",
					"event": [
						{
							"listen": "test",
							"script": {
								"exec": [
									"pm.test(\"Validate response code\", function () {",
									"    pm.response.to.have.status(200);",
									"});",
									"",
									"const jsonResponse = JSON.parse(responseBody);",
									"",
									"pm.test(\"Validate response body\", function () {",
									"    pm.expect(jsonResponse.id).to.be.not.null;",
									"    pm.expect(jsonResponse.name).to.be.eq('doggie');",
									"    pm.expect(jsonResponse.photoUrls).to.includes('url');",
									"    pm.expect(jsonResponse.status).to.be.eq('available');",
									"",
									"});",
									"",
									"pm.test('Validate response category', function () {",
									"    pm.expect(jsonResponse.category.id).to.be.eq(1);",
									"    pm.expect(jsonResponse.category.name).to.be.eq('cat');",
									"})",
									"",
									"pm.test(\"Validate response tags\", function () {",
									"    const { tags } = jsonResponse;",
									"    pm.expect(tags[0].id).to.be.eq(10);",
									"    pm.expect(tags[0].name).to.be.eq('male');",
									"});",
									""
								],
								"type": "text/javascript"
							}
						},
						{
							"listen": "prerequest",
							"script": {
								"exec": [
									"const url = `${pm.environment.get(\"baseUrl\")}/pet`;",
									"const petId = pm.environment.get(\"petId\");",
									"",
									"pm.sendRequest({",
									"    url: url,",
									"    method: 'POST',",
									"    header: {",
									"    'Content-Type': 'application/json'",
									"    },",
									"    body: JSON.stringify({",
									"    \"id\": petId,",
									"    \"category\": {",
									"      \"id\": 1,",
									"      \"name\": \"cat\"",
									"    },",
									"    \"name\": \"doggie\",",
									"    \"photoUrls\": [",
									"      \"url\"",
									"    ],",
									"    \"tags\": [",
									"      {",
									"        \"id\": 10,",
									"        \"name\": \"male\"",
									"      }",
									"    ],",
									"    \"status\": \"available\"",
									"    })",
									"}, function (err, res) {",
									"    if (err) throw new Error(err);",
									"    console.log(res.code);",
									"});"
								],
								"type": "text/javascript"
							}
						}
					],
					"protocolProfileBehavior": {
						"disableBodyPruning": true
					},
					"request": {
						"method": "GET",
						"header": [],
						"body": {
							"mode": "raw",
							"raw": "",
							"options": {
								"raw": {
									"language": "json"
								}
							}
						},
						"url": {
							"raw": "{{baseUrl}}/pet/{{petId}}",
							"host": [
								"{{baseUrl}}"
							],
							"path": [
								"pet",
								"{{petId}}"
							]
						}
					},
					"response": []
				},
				{
					"name": "Fail to get a pet by invalid Id with success",
					"event": [
						{
							"listen": "test",
							"script": {
								"exec": [
									"pm.test(\"Validate response code\", function () {",
									"    pm.response.to.have.status(404);",
									"});",
									"",
									"const jsonResponse = JSON.parse(responseBody);",
									"",
									"pm.test(\"Validate response body\", function () {",
									"    pm.expect(jsonResponse.message).to.be.eq('java.lang.NumberFormatException: For input string: \\\"invalid\\\"');",
									"});",
									""
								],
								"type": "text/javascript"
							}
						},
						{
							"listen": "prerequest",
							"script": {
								"exec": [
									""
								],
								"type": "text/javascript"
							}
						}
					],
					"protocolProfileBehavior": {
						"disableBodyPruning": true
					},
					"request": {
						"method": "GET",
						"header": [],
						"body": {
							"mode": "raw",
							"raw": "",
							"options": {
								"raw": {
									"language": "json"
								}
							}
						},
						"url": {
							"raw": "{{baseUrl}}/pet/invalid",
							"host": [
								"{{baseUrl}}"
							],
							"path": [
								"pet",
								"invalid"
							]
						}
					},
					"response": []
				},
				{
					"name": "Fail to get a pet by non existent Id",
					"event": [
						{
							"listen": "test",
							"script": {
								"exec": [
									"pm.test(\"Validate response code\", function () {",
									"    pm.response.to.have.status(404);",
									"});",
									"",
									"const jsonResponse = JSON.parse(responseBody);",
									"",
									"pm.test(\"Validate response body\", function () {",
									"    pm.expect(jsonResponse.message).to.be.eq('Pet not found');",
									"    pm.expect(jsonResponse.type).to.be.eq('error');",
									"});"
								],
								"type": "text/javascript"
							}
						},
						{
							"listen": "prerequest",
							"script": {
								"exec": [
									"",
									"const baseUrl = pm.environment.get(\"baseUrl\")",
									"const petId = pm.environment.get(\"petId\")",
									"pm.sendRequest({",
									"    url: `${baseUrl}/pet/${petId}`,",
									"    method: 'DELETE',",
									"    header: {",
									"    'Content-Type': 'application/json'",
									"    }",
									"}, function (err, res) {",
									"    if (err) throw new Error(err);",
									"    console.log(res.code);",
									"});"
								],
								"type": "text/javascript"
							}
						}
					],
					"protocolProfileBehavior": {
						"disableBodyPruning": true
					},
					"request": {
						"method": "GET",
						"header": [],
						"body": {
							"mode": "raw",
							"raw": "",
							"options": {
								"raw": {
									"language": "json"
								}
							}
						},
						"url": {
							"raw": "{{baseUrl}}/pet/{{petId}}",
							"host": [
								"{{baseUrl}}"
							],
							"path": [
								"pet",
								"{{petId}}"
							]
						}
					},
					"response": []
				}
			]
		},
		{
			"name": "PUT /pet",
			"item": [
				{
					"name": "Update a Pet with success",
					"event": [
						{
							"listen": "test",
							"script": {
								"exec": [
									"pm.test(\"Validate response code\", function () {",
									"    pm.response.to.have.status(200);",
									"});",
									"",
									"const jsonResponse = JSON.parse(responseBody);",
									"",
									"pm.test(\"Validate response body\", function () {",
									"    pm.expect(jsonResponse.id).to.be.not.null;",
									"    pm.expect(jsonResponse.name).to.be.eq('doggie');",
									"    pm.expect(jsonResponse.photoUrls).to.includes('url');",
									"    pm.expect(jsonResponse.status).to.be.eq('available');",
									"",
									"});",
									"",
									"pm.test('Validate response category', function () {",
									"    pm.expect(jsonResponse.category.id).to.be.eq(1);",
									"    pm.expect(jsonResponse.category.name).to.be.eq('cat');",
									"})",
									"",
									"pm.test(\"Validate response tags\", function () {",
									"    const { tags } = jsonResponse;",
									"    pm.expect(tags[0].id).to.be.eq(10);",
									"    pm.expect(tags[0].name).to.be.eq('male');",
									"});",
									""
								],
								"type": "text/javascript"
							}
						},
						{
							"listen": "prerequest",
							"script": {
								"exec": [
									"const url = `${pm.environment.get(\"baseUrl\")}/pet`;",
									"const petId = pm.environment.get(\"petId\");",
									"",
									"pm.sendRequest({",
									"    url: url,",
									"    method: 'POST',",
									"    header: {",
									"    'Content-Type': 'application/json'",
									"    },",
									"    body: JSON.stringify({",
									"    \"id\": petId,",
									"    \"category\": {",
									"      \"id\": 1,",
									"      \"name\": \"cat\"",
									"    },",
									"    \"name\": \"doggie\",",
									"    \"photoUrls\": [",
									"      \"url\"",
									"    ],",
									"    \"tags\": [",
									"      {",
									"        \"id\": 10,",
									"        \"name\": \"male\"",
									"      }",
									"    ],",
									"    \"status\": \"available\"",
									"    })",
									"}, function (err, res) {",
									"    if (err) throw new Error(err);",
									"    console.log(res.code);",
									"});"
								],
								"type": "text/javascript"
							}
						}
					],
					"protocolProfileBehavior": {
						"disabledSystemHeaders": {}
					},
					"request": {
						"method": "PUT",
						"header": [],
						"body": {
							"mode": "raw",
							"raw": "{\n    \"id\": 123456789,\n    \"category\": {\n        \"id\": 1,\n        \"name\": \"cat\"\n    },\n    \"name\": \"doggie\",\n    \"photoUrls\": [\n        \"url\"\n    ],\n    \"tags\": [\n        {\n            \"id\": 10,\n            \"name\": \"male\"\n        }\n    ],\n    \"status\": \"available\"\n}",
							"options": {
								"raw": {
									"language": "json"
								}
							}
						},
						"url": {
							"raw": "{{baseUrl}}/pet",
							"host": [
								"{{baseUrl}}"
							],
							"path": [
								"pet"
							]
						}
					},
					"response": []
				},
				{
					"name": "Create a Pet by PUT with success",
					"event": [
						{
							"listen": "test",
							"script": {
								"exec": [
									"pm.test(\"Validate response code\", function () {",
									"    pm.response.to.have.status(200);",
									"});",
									"",
									"const jsonResponse = JSON.parse(responseBody);",
									"",
									"pm.test(\"Validate response body\", function () {",
									"    pm.expect(jsonResponse.id).to.be.not.null;",
									"    pm.expect(jsonResponse.name).to.be.eq('doggie');",
									"    pm.expect(jsonResponse.photoUrls).to.includes('url');",
									"    pm.expect(jsonResponse.status).to.be.eq('available');",
									"",
									"});",
									"",
									"pm.test('Validate response category', function () {",
									"    pm.expect(jsonResponse.category.id).to.be.eq(1);",
									"    pm.expect(jsonResponse.category.name).to.be.eq('cat');",
									"})",
									"",
									"pm.test(\"Validate response tags\", function () {",
									"    const { tags } = jsonResponse;",
									"    pm.expect(tags[0].id).to.be.eq(10);",
									"    pm.expect(tags[0].name).to.be.eq('male');",
									"});",
									""
								],
								"type": "text/javascript"
							}
						},
						{
							"listen": "prerequest",
							"script": {
								"exec": [
									"const baseUrl = pm.environment.get(\"baseUrl\")",
									"const petId = pm.environment.get(\"petId\")",
									"pm.sendRequest({",
									"    url: `${baseUrl}/pet/${petId}`,",
									"    method: 'DELETE',",
									"    header: {",
									"    'Content-Type': 'application/json'",
									"    }",
									"}, function (err, res) {",
									"    if (err) throw new Error(err);",
									"    console.log(res.code);",
									"});"
								],
								"type": "text/javascript"
							}
						}
					],
					"protocolProfileBehavior": {
						"disabledSystemHeaders": {}
					},
					"request": {
						"method": "PUT",
						"header": [],
						"body": {
							"mode": "raw",
							"raw": "{\n    \"id\": 123456789,\n    \"category\": {\n        \"id\": 1,\n        \"name\": \"cat\"\n    },\n    \"name\": \"doggie\",\n    \"photoUrls\": [\n        \"url\"\n    ],\n    \"tags\": [\n        {\n            \"id\": 10,\n            \"name\": \"male\"\n        }\n    ],\n    \"status\": \"available\"\n}",
							"options": {
								"raw": {
									"language": "json"
								}
							}
						},
						"url": {
							"raw": "{{baseUrl}}/pet",
							"host": [
								"{{baseUrl}}"
							],
							"path": [
								"pet"
							]
						}
					},
					"response": []
				},
				{
					"name": "Fail to update a Pet with a invalid Id",
					"event": [
						{
							"listen": "test",
							"script": {
								"exec": [
									"pm.test(\"Validate response code\", function () {",
									"    pm.response.to.have.status(500);",
									"});",
									"",
									"const jsonResponse = JSON.parse(responseBody);",
									"",
									"pm.test(\"Validate response body\", function () {",
									"    pm.expect(jsonResponse.message).to.be.eq('something bad happened');",
									"});"
								],
								"type": "text/javascript"
							}
						},
						{
							"listen": "prerequest",
							"script": {
								"exec": [
									""
								],
								"type": "text/javascript"
							}
						}
					],
					"protocolProfileBehavior": {
						"disabledSystemHeaders": {}
					},
					"request": {
						"method": "PUT",
						"header": [],
						"body": {
							"mode": "raw",
							"raw": "{\n    \"id\": \"invalid\",\n    \"category\": {\n        \"id\": 1,\n        \"name\": \"cat\"\n    },\n    \"name\": \"doggie\",\n    \"photoUrls\": [\n        \"url\"\n    ],\n    \"tags\": [\n        {\n            \"id\": 10,\n            \"name\": \"male\"\n        }\n    ],\n    \"status\": \"available\"\n}",
							"options": {
								"raw": {
									"language": "json"
								}
							}
						},
						"url": {
							"raw": "{{baseUrl}}/pet",
							"host": [
								"{{baseUrl}}"
							],
							"path": [
								"pet"
							]
						}
					},
					"response": []
				}
			]
		},
		{
			"name": "POST /pet/{petID}",
			"item": [
				{
					"name": "Update a pet by form data with success",
					"event": [
						{
							"listen": "test",
							"script": {
								"exec": [
									"const petId = pm.environment.get(\"petId\");",
									"",
									"pm.test(\"Validate response code\", function () {",
									"    pm.response.to.have.status(200);",
									"});",
									"",
									"const jsonResponse = JSON.parse(responseBody);",
									"",
									"pm.test(\"Validate response body\", function () {",
									"    pm.expect(jsonResponse.message).to.be.eq(petId);",
									"});"
								],
								"type": "text/javascript"
							}
						},
						{
							"listen": "prerequest",
							"script": {
								"exec": [
									"const url = `${pm.environment.get(\"baseUrl\")}/pet`;",
									"const petId = pm.environment.get(\"petId\");",
									"",
									"pm.sendRequest({",
									"    url: url,",
									"    method: 'POST',",
									"    header: {",
									"    'Content-Type': 'application/json'",
									"    },",
									"    body: JSON.stringify({",
									"    \"id\": petId,",
									"    \"category\": {",
									"      \"id\": 1,",
									"      \"name\": \"cat\"",
									"    },",
									"    \"name\": \"doggie\",",
									"    \"photoUrls\": [",
									"      \"url\"",
									"    ],",
									"    \"tags\": [",
									"      {",
									"        \"id\": 10,",
									"        \"name\": \"male\"",
									"      }",
									"    ],",
									"    \"status\": \"available\"",
									"    })",
									"}, function (err, res) {",
									"    if (err) throw new Error(err);",
									"    console.log(res.code);",
									"});"
								],
								"type": "text/javascript"
							}
						}
					],
					"protocolProfileBehavior": {
						"disabledSystemHeaders": {}
					},
					"request": {
						"method": "POST",
						"header": [],
						"body": {
							"mode": "urlencoded",
							"urlencoded": [
								{
									"key": "name ",
									"value": "king",
									"type": "text"
								},
								{
									"key": "status",
									"value": "pending",
									"type": "text"
								}
							],
							"options": {
								"raw": {
									"language": "json"
								}
							}
						},
						"url": {
							"raw": "https://petstore.swagger.io/v2/pet/{{petId}}",
							"protocol": "https",
							"host": [
								"petstore",
								"swagger",
								"io"
							],
							"path": [
								"v2",
								"pet",
								"{{petId}}"
							]
						}
					},
					"response": []
				},
				{
					"name": "Fail to update a pet by form data with invalid petId",
					"event": [
						{
							"listen": "test",
							"script": {
								"exec": [
									"pm.test(\"Validate response code\", function () {",
									"    pm.response.to.have.status(404);",
									"});",
									"",
									"const jsonResponse = JSON.parse(responseBody);",
									"",
									"pm.test(\"Validate response body\", function () {",
									"    pm.expect(jsonResponse.message).to.be.eq('java.lang.NumberFormatException: For input string: \\\"invalid\\\"');",
									"});"
								],
								"type": "text/javascript"
							}
						},
						{
							"listen": "prerequest",
							"script": {
								"exec": [
									"const url = `${pm.environment.get(\"baseUrl\")}/pet`;",
									"const petId = pm.environment.get(\"petId\");",
									"",
									"pm.sendRequest({",
									"    url: url,",
									"    method: 'POST',",
									"    header: {",
									"    'Content-Type': 'application/json'",
									"    },",
									"    body: JSON.stringify({",
									"    \"id\": petId,",
									"    \"category\": {",
									"      \"id\": 1,",
									"      \"name\": \"cat\"",
									"    },",
									"    \"name\": \"doggie\",",
									"    \"photoUrls\": [",
									"      \"url\"",
									"    ],",
									"    \"tags\": [",
									"      {",
									"        \"id\": 10,",
									"        \"name\": \"male\"",
									"      }",
									"    ],",
									"    \"status\": \"available\"",
									"    })",
									"}, function (err, res) {",
									"    if (err) throw new Error(err);",
									"    console.log(res.code);",
									"});"
								],
								"type": "text/javascript"
							}
						}
					],
					"protocolProfileBehavior": {
						"disabledSystemHeaders": {}
					},
					"request": {
						"method": "POST",
						"header": [],
						"body": {
							"mode": "urlencoded",
							"urlencoded": [
								{
									"key": "name ",
									"value": "king",
									"type": "text"
								},
								{
									"key": "status",
									"value": "pending",
									"type": "text"
								}
							],
							"options": {
								"raw": {
									"language": "json"
								}
							}
						},
						"url": {
							"raw": "https://petstore.swagger.io/v2/pet/invalid",
							"protocol": "https",
							"host": [
								"petstore",
								"swagger",
								"io"
							],
							"path": [
								"v2",
								"pet",
								"invalid"
							]
						}
					},
					"response": []
				},
				{
					"name": "Fail to update a pet by form data with non existent petId",
					"event": [
						{
							"listen": "test",
							"script": {
								"exec": [
									"const petId = pm.environment.get(\"petId\");",
									"",
									"pm.test(\"Validate response code\", function () {",
									"    pm.response.to.have.status(404);",
									"});",
									"",
									"const jsonResponse = JSON.parse(responseBody);",
									"",
									"pm.test(\"Validate response body\", function () {",
									"    pm.expect(jsonResponse.message).to.be.eq('not found');",
									"});"
								],
								"type": "text/javascript"
							}
						},
						{
							"listen": "prerequest",
							"script": {
								"exec": [
									"const baseUrl = pm.environment.get(\"baseUrl\")",
									"const petId = pm.environment.get(\"petId\")",
									"pm.sendRequest({",
									"    url: `${baseUrl}/pet/${petId}`,",
									"    method: 'DELETE',",
									"    header: {",
									"    'Content-Type': 'application/json'",
									"    }",
									"}, function (err, res) {",
									"    if (err) throw new Error(err);",
									"    console.log(res.code);",
									"});"
								],
								"type": "text/javascript"
							}
						}
					],
					"protocolProfileBehavior": {
						"disabledSystemHeaders": {}
					},
					"request": {
						"method": "POST",
						"header": [],
						"body": {
							"mode": "urlencoded",
							"urlencoded": [
								{
									"key": "name ",
									"value": "king",
									"type": "text"
								},
								{
									"key": "status",
									"value": "pending",
									"type": "text"
								}
							],
							"options": {
								"raw": {
									"language": "json"
								}
							}
						},
						"url": {
							"raw": "https://petstore.swagger.io/v2/pet/{{petId}}",
							"protocol": "https",
							"host": [
								"petstore",
								"swagger",
								"io"
							],
							"path": [
								"v2",
								"pet",
								"{{petId}}"
							]
						}
					},
					"response": []
				}
			]
		},
		{
			"name": "Delete /pet/{petId}",
			"item": [
				{
					"name": "Delete a pet by ID with success",
					"event": [
						{
							"listen": "test",
							"script": {
								"exec": [
									"const petId = pm.environment.get(\"petId\");",
									"",
									"pm.test(\"Validate response code\", function () {",
									"    pm.response.to.have.status(200);",
									"});",
									"",
									"const jsonResponse = JSON.parse(responseBody);",
									"",
									"pm.test(\"Validate response body\", function () {",
									"    pm.expect(jsonResponse.message).to.be.eq(petId);",
									"});"
								],
								"type": "text/javascript"
							}
						},
						{
							"listen": "prerequest",
							"script": {
								"exec": [
									"const url = `${pm.environment.get(\"baseUrl\")}/pet`;",
									"const petId = pm.environment.get(\"petId\");",
									"",
									"pm.sendRequest({",
									"    url: url,",
									"    method: 'POST',",
									"    header: {",
									"    'Content-Type': 'application/json'",
									"    },",
									"    body: JSON.stringify({",
									"    \"id\": petId,",
									"    \"category\": {",
									"      \"id\": 1,",
									"      \"name\": \"cat\"",
									"    },",
									"    \"name\": \"doggie\",",
									"    \"photoUrls\": [",
									"      \"url\"",
									"    ],",
									"    \"tags\": [",
									"      {",
									"        \"id\": 10,",
									"        \"name\": \"male\"",
									"      }",
									"    ],",
									"    \"status\": \"available\"",
									"    })",
									"}, function (err, res) {",
									"    if (err) throw new Error(err);",
									"    console.log(res.code);",
									"});"
								],
								"type": "text/javascript"
							}
						}
					],
					"request": {
						"method": "DELETE",
						"header": [],
						"body": {
							"mode": "raw",
							"raw": "",
							"options": {
								"raw": {
									"language": "json"
								}
							}
						},
						"url": {
							"raw": "{{baseUrl}}/pet/{{petId}}",
							"host": [
								"{{baseUrl}}"
							],
							"path": [
								"pet",
								"{{petId}}"
							]
						}
					},
					"response": []
				},
				{
					"name": "Fail to delete a pet with invalid Id",
					"event": [
						{
							"listen": "test",
							"script": {
								"exec": [
									"pm.test(\"Validate response code\", function () {",
									"    pm.response.to.have.status(404);",
									"});",
									"",
									"const jsonResponse = JSON.parse(responseBody);",
									"",
									"pm.test(\"Validate response body\", function () {",
									"    pm.expect(jsonResponse.message).to.be.eq('java.lang.NumberFormatException: For input string: \\\"invalid\\\"');",
									"});"
								],
								"type": "text/javascript"
							}
						},
						{
							"listen": "prerequest",
							"script": {
								"exec": [
									""
								],
								"type": "text/javascript"
							}
						}
					],
					"request": {
						"method": "DELETE",
						"header": [],
						"body": {
							"mode": "raw",
							"raw": "",
							"options": {
								"raw": {
									"language": "json"
								}
							}
						},
						"url": {
							"raw": "{{baseUrl}}/pet/invalid",
							"host": [
								"{{baseUrl}}"
							],
							"path": [
								"pet",
								"invalid"
							]
						}
					},
					"response": []
				},
				{
					"name": "Fail to delete a pet with non existent Id",
					"event": [
						{
							"listen": "test",
							"script": {
								"exec": [
									"pm.test(\"Validate response code\", function () {",
									"    pm.response.to.have.status(404);",
									"});",
									"",
									"pm.test(\"Validate response body\", function () {",
									"    pm.expect(responseBody).to.be.empty;",
									"});"
								],
								"type": "text/javascript"
							}
						},
						{
							"listen": "prerequest",
							"script": {
								"exec": [
									"const baseUrl = pm.environment.get(\"baseUrl\")",
									"const petId = pm.environment.get(\"petId\")",
									"pm.sendRequest({",
									"    url: `${baseUrl}/pet/${petId}`,",
									"    method: 'DELETE',",
									"    header: {",
									"    'Content-Type': 'application/json'",
									"    }",
									"}, function (err, res) {",
									"    if (err) throw new Error(err);",
									"    console.log(res.code);",
									"});"
								],
								"type": "text/javascript"
							}
						}
					],
					"request": {
						"method": "DELETE",
						"header": [],
						"body": {
							"mode": "raw",
							"raw": "",
							"options": {
								"raw": {
									"language": "json"
								}
							}
						},
						"url": {
							"raw": "{{baseUrl}}/pet/{{petId}}",
							"host": [
								"{{baseUrl}}"
							],
							"path": [
								"pet",
								"{{petId}}"
							]
						}
					},
					"response": []
				}
			]
		}
	]
}